{
  "project_info": {
    "project_number": "726767370978",
    "firebase_url": "https://juddit-1f48d.firebaseio.com",
    "project_id": "juddit-1f48d",
    "storage_bucket": "juddit-1f48d.appspot.com"
  },
  "client": [
    {
      "client_info": {
        "mobilesdk_app_id": "1:726767370978:android:c8e78eb24eb00667",
        "android_client_info": {
          "package_name": "com.juddit.juddit_main"
        }
      },
      "oauth_client": [
        {
          "client_id": "726767370978-d9ouref2c3ttg08f9atkat1btqdmbtcl.apps.googleusercontent.com",
          "client_type": 1,
          "android_info": {
            "package_name": "com.juddit.juddit_main",
            "certificate_hash": "158d0969f20947bf1fb016e16733c8829686e032"
          }
        },
        {
          "client_id": "726767370978-n5a9hekh37lt4hsus9djq6bvcfnv2v45.apps.googleusercontent.com",
          "client_type": 3
        }
      ],
      "api_key": [
        {
          "current_key": "AIzaSyDB8NoREn7L96HNGAAmJmXwBjHIMMAJ1gE"
        }
      ],
      "services": {
        "appinvite_service": {
          "other_platform_oauth_client": [
            {
              "client_id": "726767370978-n5a9hekh37lt4hsus9djq6bvcfnv2v45.apps.googleusercontent.com",
              "client_type": 3
            }
          ]
        }
      }
    }
  ],
  "configuration_version": "1"
}